login,password,email,groups
user1,azerty,user@mail.com,"concepteurs,Leader"
user2,azerty,user@mail.com,"concepteurs"
user3,azerty,user@mail.com,"concepteurs"
user4,azerty,user@mail.com,"concepteurs"
