first_name;last_name;adress;city;zip_code;phone;cell_phone;mail;web_site;activity;company
olivier;cyssau;1 rue du bac;PARIS;75000;0102030405;0602030405;toto@web.org;www.site.com;informatique;SIER
olivier2;cyssau2;1 rue du bac;PARIS;75000;0102030405;0602030405;toto@web.org;www.site.com;informatique;SIER
olivier3;cyssau3;1 rue du bac;PARIS;75000;0102030405;0602030405;toto@web.org;www.site.com;informatique;SIER
olivier4;cyssau4;1 rue du bac;PARIS;75000;0102030405;0602030405;toto@web.org;www.site.com;informatique;SIER
olivier5;cyssau5;1 rue du bac;PARIS;75000;0102030405;0602030405;toto@web.org;www.site.com;informatique;SIER
olivier6;cyssau6;1 rue du bac;PARIS;75000;0102030405;0602030405;toto@web.org;www.site.com;informatique;SIER
olivier7;cyssau7;1 rue du bac;PARIS;75000;0102030405;0602030405;toto@web.org;www.site.com;informatique;SIER
olivier8;cyssau8;1 rue du bac;PARIS;75000;0102030405;0602030405;toto@web.org;www.site.com;informatique;SIER
olivier9;cyssau9;1 rue du bac;PARIS;75000;0102030405;0602030405;toto@web.org;www.site.com;informatique;SIER
olivier10;cyssau10;1 rue du bac;PARIS;75000;0102030405;0602030405;toto@web.org;www.site.com;informatique;SIER
olivier;cyssau;1 rue du bac;PARIS;75000;0102030405;0602030405;toto@web.org;www.site.com;informatique;SIER
