<?xml version="1.0" encoding="UTF-8" standalone="no"?>
<!-- Created with Inkscape (http://www.inkscape.org/) -->
<svg
   xmlns:dc="http://purl.org/dc/elements/1.1/"
   xmlns:cc="http://web.resource.org/cc/"
   xmlns:rdf="http://www.w3.org/1999/02/22-rdf-syntax-ns#"
   xmlns:svg="http://www.w3.org/2000/svg"
   xmlns="http://www.w3.org/2000/svg"
   xmlns:xlink="http://www.w3.org/1999/xlink"
   xmlns:sodipodi="http://sodipodi.sourceforge.net/DTD/sodipodi-0.dtd"
   xmlns:inkscape="http://www.inkscape.org/namespaces/inkscape"
   width="210mm"
   height="297mm"
   id="svg2"
   sodipodi:version="0.32"
   inkscape:version="0.45.1"
   sodipodi:docbase="C:\wamp\www\ranchbe\img"
   sodipodi:docname="logoRanchBE.svg"
   inkscape:output_extension="org.inkscape.output.svg.inkscape"
   inkscape:export-filename="C:\wamp\www\ranchbe\img\ranchBe_logo_190.png"
   inkscape:export-xdpi="29.263458"
   inkscape:export-ydpi="29.263458">
  <defs
     id="defs4">
    <linearGradient
       inkscape:collect="always"
       id="linearGradient4828">
      <stop
         style="stop-color:#000000;stop-opacity:1;"
         offset="0"
         id="stop4830" />
      <stop
         style="stop-color:#000000;stop-opacity:0;"
         offset="1"
         id="stop4832" />
    </linearGradient>
    <linearGradient
       id="linearGradient4676">
      <stop
         style="stop-color:#000000;stop-opacity:1;"
         offset="0"
         id="stop4678" />
      <stop
         style="stop-color:#000000;stop-opacity:0;"
         offset="1"
         id="stop4680" />
    </linearGradient>
    <linearGradient
       id="linearGradient3416">
      <stop
         style="stop-color:#99853b;stop-opacity:1;"
         offset="0"
         id="stop3418" />
      <stop
         style="stop-color:#c8ae4e;stop-opacity:0.26666668;"
         offset="1"
         id="stop3420" />
    </linearGradient>
    <linearGradient
       inkscape:collect="always"
       xlink:href="#linearGradient3416"
       id="linearGradient3422"
       x1="675.72302"
       y1="772.13269"
       x2="46.106968"
       y2="56.344769"
       gradientUnits="userSpaceOnUse" />
    <radialGradient
       inkscape:collect="always"
       xlink:href="#linearGradient4828"
       id="radialGradient4834"
       cx="552.61323"
       cy="295.52259"
       fx="552.61323"
       fy="295.52259"
       r="503.64754"
       gradientTransform="matrix(1,0,0,0.2330087,0,226.66326)"
       gradientUnits="userSpaceOnUse" />
    <clipPath
       clipPathUnits="userSpaceOnUse"
       id="clipPath10878">
      <rect
         style="opacity:0.33333333;fill:#c3d99c;fill-opacity:1;stroke:#27779d;stroke-width:1.13700581;stroke-linejoin:miter;stroke-miterlimit:4;stroke-dasharray:none;stroke-opacity:1"
         id="rect10880"
         width="609.98016"
         height="371.58414"
         x="-620.15778"
         y="195.8288"
         rx="0"
         ry="0"
         clip-path="none" />
    </clipPath>
    <clipPath
       clipPathUnits="userSpaceOnUse"
       id="clipPath12824">
      <rect
         style="opacity:0.33333333;fill:#baa68a;fill-opacity:1;stroke:#27779d;stroke-width:1.74150681;stroke-linejoin:miter;stroke-miterlimit:4;stroke-dasharray:none;stroke-opacity:1"
         id="rect12826"
         width="570.67212"
         height="387.81494"
         x="823.23547"
         y="175.5976" />
    </clipPath>
    <clipPath
       clipPathUnits="userSpaceOnUse"
       id="clipPath12898">
      <path
         style="fill:none;fill-opacity:0.75;fill-rule:evenodd;stroke:#000000;stroke-width:0.97178984px;stroke-linecap:butt;stroke-linejoin:miter;stroke-opacity:1"
         d="M 1435.7284,130.76046 L 1435.7284,540.79437 L 1210.004,542.38199 L 1205.7182,563.80486 L 799.98589,563.80486 L 799.98589,366.84385 L 1067.1406,128.06236 L 1435.7284,130.76046 z "
         id="path12900"
         sodipodi:nodetypes="cccccccc" />
    </clipPath>
    <radialGradient
       inkscape:collect="always"
       xlink:href="#linearGradient4828"
       id="radialGradient14975"
       gradientUnits="userSpaceOnUse"
       gradientTransform="matrix(1,0,0,0.2330087,0,226.66326)"
       cx="552.61323"
       cy="295.52259"
       fx="552.61323"
       fy="295.52259"
       r="503.64754" />
    <filter
       inkscape:collect="always"
       id="filter15065">
      <feGaussianBlur
         inkscape:collect="always"
         stdDeviation="2.9219526"
         id="feGaussianBlur15067" />
    </filter>
    <linearGradient
       inkscape:collect="always"
       xlink:href="#linearGradient3416"
       id="linearGradient15093"
       gradientUnits="userSpaceOnUse"
       x1="599.14447"
       y1="616.47406"
       x2="120.74292"
       y2="149.37146" />
    <radialGradient
       inkscape:collect="always"
       xlink:href="#linearGradient4828"
       id="radialGradient15095"
       gradientUnits="userSpaceOnUse"
       gradientTransform="matrix(1,0,0,0.2330087,0,226.66326)"
       cx="552.61323"
       cy="295.52259"
       fx="552.61323"
       fy="295.52259"
       r="503.64754" />
    <radialGradient
       inkscape:collect="always"
       xlink:href="#linearGradient4828"
       id="radialGradient15097"
       gradientUnits="userSpaceOnUse"
       gradientTransform="matrix(1,0,0,0.2330087,0,226.66326)"
       cx="552.61323"
       cy="295.52259"
       fx="552.61323"
       fy="295.52259"
       r="503.64754" />
    <filter
       inkscape:collect="always"
       x="-0.05193269"
       width="1.1038654"
       y="-0.55613057"
       height="2.1122611"
       id="filter5617">
      <feGaussianBlur
         inkscape:collect="always"
         stdDeviation="10.480077"
         id="feGaussianBlur5619" />
    </filter>
    <filter
       inkscape:collect="always"
       id="filter6876">
      <feGaussianBlur
         inkscape:collect="always"
         stdDeviation="16.389565"
         id="feGaussianBlur6878" />
    </filter>
    <filter
       inkscape:collect="always"
       x="-0.56510417"
       width="2.1302083"
       y="-0.10395763"
       height="1.2079153"
       id="filter8157">
      <feGaussianBlur
         inkscape:collect="always"
         stdDeviation="22.18357"
         id="feGaussianBlur8159" />
    </filter>
  </defs>
  <sodipodi:namedview
     id="base"
     pagecolor="#ffffff"
     bordercolor="#666666"
     borderopacity="1.0"
     inkscape:pageopacity="0.0"
     inkscape:pageshadow="2"
     inkscape:zoom="0.49497475"
     inkscape:cx="763.21134"
     inkscape:cy="469.21551"
     inkscape:document-units="px"
     inkscape:current-layer="layer3"
     showguides="true"
     inkscape:guide-bbox="true"
     inkscape:window-width="1280"
     inkscape:window-height="744"
     inkscape:window-x="7"
     inkscape:window-y="11" />
  <metadata
     id="metadata7">
    <rdf:RDF>
      <cc:Work
         rdf:about="">
        <dc:format>image/svg+xml</dc:format>
        <dc:type
           rdf:resource="http://purl.org/dc/dcmitype/StillImage" />
      </cc:Work>
    </rdf:RDF>
  </metadata>
  <g
     inkscape:label="Calque 1"
     inkscape:groupmode="layer"
     id="layer1">
    <rect
       style="fill:#ff6600"
       id="rect2162"
       width="0"
       height="48.57143"
       x="300"
       y="440.93362" />
  </g>
  <g
     inkscape:groupmode="layer"
     id="layer2"
     inkscape:label="rerte" />
  <g
     inkscape:groupmode="layer"
     id="layer3"
     inkscape:label="dsfsdf">
    <rect
       style="fill:url(#linearGradient15093);fill-opacity:1;stroke:#9c8f43;stroke-width:3.9000001;stroke-linejoin:miter;stroke-miterlimit:4;stroke-dasharray:none;stroke-opacity:0.82110087;filter:url(#filter15065)"
       id="rect2160"
       width="579.9256"
       height="580.00696"
       x="73.851883"
       y="89.953087"
       transform="matrix(0.9999992,-1.2404504e-3,1.2404504e-3,0.9999992,13.448876,129.15595)"
       ry="79.890076"
       rx="77.192421" />
    <path
       style="fill:#baa68a;fill-opacity:1;stroke:none;stroke-width:10;stroke-linecap:butt;stroke-linejoin:round;marker-start:none;marker-mid:none;marker-end:none;stroke-miterlimit:6.9000001;stroke-dasharray:none;stroke-dashoffset:0;stroke-opacity:1"
       d="M 832.25055,644.06079 C 832.25055,641.29329 839.74897,618.29679 848.91372,592.95749 L 865.57691,546.88595 L 848.91372,527.21428 C 831.23275,506.34107 829.0411,500.1396 837.51379,494.95718 C 841.32089,492.62852 845.99726,493.74467 854.41662,498.99155 C 865.67537,506.00792 866.36582,506.05326 875.51899,500.37754 C 882.43425,496.08951 886.51659,495.40762 890.68286,497.84466 C 896.51137,501.25401 906.05506,499.19584 906.05506,494.52953 C 906.05506,493.10297 901.90356,490.05629 896.8295,487.75913 C 885.05848,482.43009 885.05848,475.94215 896.8295,471.45722 C 901.90356,469.52394 906.05506,465.53372 906.05506,462.59008 C 906.05506,459.64644 895.33035,445.77137 882.22236,431.7566 C 869.11437,417.74182 859.77349,406.88573 861.46484,407.63195 C 863.15619,408.37818 868.35142,411.07651 873.00979,413.62824 C 883.42143,419.33148 886.24534,416.88589 881.19449,406.54006 C 878.05673,400.11289 879.85125,400.91558 891.09307,410.9677 C 898.64521,417.72061 910.04012,425.62768 916.4151,428.53898 C 926.98619,433.36654 928.66506,433.36025 935.49704,428.46755 C 941.38499,424.25092 943.93574,423.96244 947.41623,427.11956 C 953.28699,432.44488 966.02123,430.26248 966.02123,423.93103 C 966.02123,420.99472 962.20412,418.19972 956.79567,417.1758 C 942.09987,414.39361 945.0589,405.71748 961.38094,403.73136 C 978.40442,401.65987 980.27652,395.5473 969.29659,377.88645 C 964.95811,370.90817 961.40845,362.47731 961.40845,359.1512 C 961.40845,351.41279 968.45314,348.44138 976.13975,352.93762 C 985.27682,358.2823 986.37952,353.83874 979.54812,339.20299 C 970.78775,320.43464 973.79587,316.30942 984.23562,332.77469 C 993.64324,347.61192 998.34524,349.60518 1004.5773,341.39784 C 1006.7467,338.5408 1010.3314,336.96224 1012.5433,337.88994 C 1021.6937,341.72775 1018.968,333.24216 1008.2751,324.60231 C 991.95672,311.41705 976.78442,295.44683 976.78442,291.45555 C 976.78442,289.58468 982.66572,294.21291 989.85402,301.74052 C 1004.6255,317.20943 1021.7139,328.85592 1024.7578,325.52903 C 1025.8769,324.30584 1024.6718,318.33535 1022.0797,312.26126 C 1016.962,300.26891 1018.5842,277.41014 1025.5498,263.36225 C 1028.6544,257.10111 1030.3931,256.3842 1035.3877,259.3058 C 1039.9276,261.96138 1041.7559,261.76064 1042.6516,258.50826 C 1047.3472,241.4575 1047.3188,241.48391 1058.7933,243.5191 L 1069.9638,245.50038 L 1061.8139,236.20279 C 1057.3316,231.08911 1053.6641,225.85359 1053.6641,224.56828 C 1053.6641,220.2113 1066.5091,222.20277 1075.39,227.93663 C 1089.3653,236.9596 1090.274,229.4815 1076.7279,216.92654 C 1062.4305,203.67522 1067.9228,201.23682 1087.4911,212.14803 C 1102.6255,220.5869 1105.5679,220.56175 1108.4763,211.96863 C 1110.7099,205.36921 1111.4125,205.58674 1124.5219,216.93661 C 1139.9616,230.30393 1144.9868,226.87091 1131.8753,211.91304 C 1127.1612,206.53502 1124.2837,201.06417 1125.4809,199.75561 C 1128.1631,196.824 1144.5498,206.79731 1155.8767,218.2552 C 1163.6853,226.15404 1164.9006,226.42438 1172.6259,221.98087 C 1177.2072,219.34573 1185.5472,212.2016 1191.1592,206.10502 C 1201.3554,195.02837 1201.3693,195.02462 1210.5051,200.92302 C 1219.6238,206.81041 1219.6739,206.79777 1229.8266,196.04242 C 1235.4251,190.11162 1241.4442,185.25914 1243.2025,185.25914 C 1247.2362,185.25914 1245.8431,217.70916 1240.8001,241.2191 L 1237.0877,258.52628 L 1251.6137,276.51077 C 1259.6031,286.40224 1277.644,308.864 1291.7047,326.4258 C 1305.7654,343.98761 1329.9097,373.1971 1345.3588,391.33578 C 1360.8078,409.47446 1377.1028,431.13148 1381.5697,439.46249 C 1388.8204,452.98515 1389.4809,456.83812 1387.7282,475.38584 C 1384.608,508.40345 1371.7017,521.54328 1340.5346,523.43313 C 1326.1045,524.30809 1323.391,523.35438 1315.8449,514.75531 C 1310.4154,508.56821 1299.728,502.5623 1286.1219,498.05211 C 1274.437,494.17879 1259.9374,487.67322 1253.9005,483.59529 C 1247.8635,479.51736 1235.9744,475.10887 1227.4802,473.79865 C 1218.986,472.48842 1208.4633,470.42832 1204.0964,469.22063 C 1196.8937,467.22869 1195.6654,468.43064 1190.8657,482.16679 C 1186.5882,494.40869 1186.0847,501.4673 1188.2365,519.02164 C 1189.7004,530.9637 1190.3543,545.83066 1189.6896,552.05931 L 1188.481,563.38413 L 1062.0078,563.38413 L 935.53468,563.38413 L 933.34596,575.14802 C 931.89251,582.95999 926.94088,590.89459 918.60616,598.76749 C 906.64724,610.06359 906.05506,611.53049 906.05506,629.85779 C 906.05506,648.01009 905.63264,649.09249 898.54858,649.09249 C 889.53206,649.09249 886.8096,644.88689 884.63655,627.60139 C 881.50126,602.66169 866.4424,602.55969 857.2076,627.41579 C 854.47502,634.77059 851.11973,642.65669 849.75139,644.94039 C 846.16708,650.92239 832.25055,650.22289 832.25055,644.06079 z M 902.94737,586.9547 C 908.9509,579.04832 904.34389,571.78691 893.32417,571.78691 C 882.98113,571.78691 872.228,579.76196 872.228,587.43285 C 872.228,593.88739 897.98765,593.48649 902.94737,586.9547 z M 992.16042,384.62159 C 992.16042,381.26829 979.23552,366.75913 976.24834,366.75913 C 971.08757,366.75913 973.92584,376.62714 980.54382,381.69355 C 987.83992,387.27911 992.16042,388.3681 992.16042,384.62159 z M 1065.9648,296.84802 C 1065.9648,295.36913 1064.235,292.24232 1062.1208,289.89954 C 1059.04,286.4856 1059.4479,284.69514 1064.1755,280.88098 C 1069.173,276.84912 1069.5354,274.82958 1066.5478,267.66281 C 1062.4801,257.90505 1054.7787,256.48572 1052.5633,265.08553 C 1048.708,280.0512 1047.2277,292.95083 1049.005,296.09379 C 1051.2898,300.13447 1065.9648,300.78709 1065.9648,296.84802 z M 918.35582,646.40989 C 918.35582,639.28129 959.56123,576.48464 966.04666,573.72953 C 978.77862,568.32083 982.01662,575.13165 982.30522,607.92759 C 982.44752,624.09809 981.86222,639.97549 981.00452,643.21059 C 978.70592,651.88069 969.07426,650.35959 965.04318,640.68969 C 960.17345,629.00809 943.77252,629.00809 933.73176,640.68969 C 926.75738,648.80389 918.35582,651.92939 918.35582,646.40989 z M 963.92872,609.56509 C 965.1349,600.32479 959.70679,599.67379 955.36627,608.53819 C 950.92867,617.60089 951.36158,619.50649 957.56446,618.21429 C 960.52433,617.59769 963.38825,613.70559 963.92872,609.56509 z M 989.17732,645.13759 C 989.22802,642.69129 993.94964,625.56469 999.66984,607.07859 C 1009.5207,575.24324 1010.5239,573.46747 1018.657,573.46747 C 1026.3912,573.46747 1027.7159,575.2504 1031.9972,591.42259 C 1034.6116,601.29789 1038.1344,609.61659 1039.8258,609.90869 C 1041.5171,610.20079 1044.9767,603.32179 1047.5137,594.62219 C 1053.1855,575.17333 1058.2647,568.7486 1063.4704,574.43836 C 1067.1724,578.48463 1059.997,606.47519 1047.7793,635.64809 C 1040.0605,654.07849 1032.341,651.43939 1025.1674,627.91749 C 1021.8602,617.07339 1017.6803,608.98469 1015.7477,609.68879 C 1013.8369,610.38499 1009.4117,619.15069 1005.9141,629.16809 C 1002.1559,639.93179 997.41364,647.83239 994.32004,648.48349 C 991.44082,649.08959 989.12662,647.58389 989.17732,645.13759 z M 1073.3443,646.52019 C 1068.4888,642.97659 1062.8896,630.42529 1062.8896,623.08449 C 1062.8896,619.62869 1066.4312,609.03329 1070.7599,599.53909 C 1080.8083,577.49973 1099.0189,566.13759 1114.7111,572.11657 C 1125.9609,576.40289 1131.7485,585.87084 1128.9692,595.44169 C 1126.491,603.97619 1117.7159,603.90719 1112.8063,595.31469 C 1104.1532,580.17067 1085.1632,594.53929 1082.2288,618.45089 C 1080.1262,635.58429 1086.1547,639.30329 1101.443,630.30449 C 1116.7439,621.29819 1122.004,628.23039 1108.967,640.22029 C 1099.391,649.02709 1081.19,652.24599 1073.3443,646.52019 z M 1124.3933,643.51749 C 1124.3933,637.33109 1138.3621,587.66228 1142.6761,578.50913 C 1143.983,575.73622 1148.3611,573.46747 1152.4052,573.46747 C 1160.1295,573.46747 1161.1477,578.57414 1156.5938,594.47439 C 1154.6293,601.33359 1155.4351,602.03689 1165.2579,602.03689 C 1175.3002,602.03689 1176.3887,600.99789 1180.2237,587.75219 C 1183.2745,577.21497 1185.973,573.46747 1190.5099,573.46747 C 1199.9982,573.46747 1199.4526,583.83502 1188.2107,617.16189 C 1179.6836,642.44079 1176.8142,647.59879 1170.7501,648.54879 C 1163.158,649.73819 1163.1635,649.78469 1168.0226,625.35469 C 1168.7122,621.88759 1166.0021,620.52309 1158.4267,620.52309 C 1149.2301,620.52309 1147.0499,622.24979 1141.5079,633.92259 C 1134.7086,648.24339 1124.3933,654.02639 1124.3933,643.51749 z M 1202.1858,643.55789 C 1199.5649,642.39409 1202.142,630.46379 1211.0226,602.64959 C 1217.9178,581.05356 1224.9416,561.49351 1226.6311,559.18275 C 1228.4899,556.64033 1237.1768,554.98136 1248.6307,554.98136 C 1279.573,554.98136 1290.1764,569.61321 1273.2378,588.93718 C 1265.7873,597.43689 1265.5112,598.84889 1269.1489,609.84419 C 1276.7113,632.70209 1259.4239,645.98129 1222.7993,645.44729 C 1213.4969,645.31169 1204.2208,644.46139 1202.1858,643.55789 z M 1253.5512,628.92579 C 1265.548,615.81359 1257.6469,602.03689 1238.13,602.03689 C 1224.4713,602.03689 1216.649,610.87689 1216.649,626.31259 C 1216.649,635.27439 1217.2644,635.64809 1232.0249,635.64809 C 1243.3006,635.64809 1249.0409,633.85549 1253.5512,628.92579 z M 1257.7007,592.14609 C 1266.7556,588.38334 1270.9414,576.80895 1265.7295,569.94506 C 1263.5521,567.07749 1256.6256,565.06469 1248.935,565.06469 C 1237.3088,565.06469 1235.4218,566.18465 1232.0478,575.08766 C 1229.9586,580.60028 1229.0554,587.40653 1230.0406,590.21269 C 1232.0733,596.00219 1246.0674,596.98029 1257.7007,592.14609 z M 1290.9646,642.78669 C 1287.6938,640.52049 1289.4792,631.85099 1299.7795,599.98399 C 1306.8836,578.00544 1314.2647,558.87887 1316.1819,557.48041 C 1321.2705,553.76877 1365.7956,556.05059 1365.7956,560.02302 C 1365.7956,561.87163 1358.8764,563.77937 1350.4196,564.26243 C 1326.7381,565.61517 1322.067,567.59947 1318.9079,577.64859 C 1314.4448,591.84599 1317.1099,595.31469 1332.4811,595.31469 C 1352.4598,595.31469 1348.2472,603.26779 1327.1401,605.39799 C 1312.6189,606.86359 1309.9608,608.28729 1306.364,616.52579 C 1299.6736,631.85039 1303.2127,635.64809 1324.1841,635.64809 C 1341.9239,635.64809 1348.2202,639.34909 1337.8674,643.69119 C 1330.6184,646.73159 1295.6861,646.05789 1290.9646,642.78669 z "
       id="path10882"
       clip-path="url(#clipPath12898)"
       transform="matrix(0.9891048,0,0,1,-720.93246,86.095759)" />
    <a
       id="a13987"
       transform="translate(13.448876,108.9529)">
      <flowRoot
         transform="matrix(1.551618,0,-0.5506934,1.8262954,433.89505,-771.11319)"
         style="font-size:72px;font-style:normal;font-family:Arial Narrow"
         id="flowRoot4836"
         xml:space="preserve"><flowRegion
           id="flowRegion4838"><rect
             style="font-size:72px;font-style:normal;font-family:Arial Narrow"
             y="699.50507"
             x="45.714287"
             height="111.42857"
             width="685.71429"
             id="rect4840" /></flowRegion><flowPara
           style="font-size:72px;font-style:normal;font-weight:bold;font-family:Verdana"
           id="flowPara4842"><flowSpan
             id="flowSpan6800"
             style="fill:#1e739d;fill-opacity:1">R</flowSpan><flowSpan
             id="flowSpan4844"
             style="font-size:56px;font-weight:bold;fill:#1e739d;fill-opacity:1;font-family:Verdana">ANCH</flowSpan><flowSpan
             id="flowSpan10842"
             style="fill:#c3d99c;fill-opacity:1">BE</flowSpan></flowPara></flowRoot>    </a>
    <path
       style="opacity:0.72764228;fill:#ffffff;fill-opacity:1;fill-rule:evenodd;stroke:none;stroke-width:1px;stroke-linecap:butt;stroke-linejoin:miter;stroke-opacity:1;filter:url(#filter5617)"
       d="M 634.75399,264.43794 C 577.72475,234.96781 175.71428,240.93361 175.71428,240.93361 C 175.71428,240.93361 132.85714,250.93361 131.42857,270.93361 C 130,290.93361 179.13753,273.87824 234.85181,272.44967 C 290.5661,271.0211 423.92981,269.66609 423.92981,269.66609 L 634.75399,264.43794 z "
       id="path2222"
       transform="matrix(1.0743197,0,0,1.0315867,-32.621984,-8.8914485)"
       sodipodi:nodetypes="ccsscc" />
    <path
       style="opacity:0.86000001;fill:#f9f7ec;fill-opacity:0.75;fill-rule:evenodd;stroke:none;stroke-width:1px;stroke-linecap:butt;stroke-linejoin:miter;stroke-opacity:1;filter:url(#filter6876)"
       d="M 639.22263,783.54565 C 639.22263,783.54565 267.87485,788.45024 228.57143,788.07647 C 138.55401,787.23964 126.62291,777.44269 112.5823,724.72913 C 102.32645,686.22493 132.2654,272.85239 132.2654,272.85239 C 132.2654,272.85239 139.94463,511.43839 153.3894,696.95247 C 158.23938,763.87358 108.82374,729.43325 312.15156,745.49416 L 639.22263,783.54565 z "
       id="path5621"
       sodipodi:nodetypes="csscscc"
       transform="matrix(1.049669,0,0,1.0431316,-13.566777,-31.971632)" />
    <path
       style="opacity:0.15040648;fill:#503030;fill-opacity:1;fill-rule:evenodd;stroke:#ffeb55;stroke-width:1px;stroke-linecap:butt;stroke-linejoin:miter;stroke-opacity:1;filter:url(#filter8157)"
       d="M 604.07678,773.37728 C 674.78746,737.01179 655.55769,725.43666 656.59916,680.62605 C 658.61845,593.74345 667.51484,475.00876 665.49605,391.4261 C 665.09788,375.32156 666.59003,332.22151 646.43023,296.73669 C 604.21688,222.43371 623.68458,312.94385 623.68458,312.94385"
       id="path6880"
       transform="matrix(0.7406431,0,0,0.8383003,170.82141,93.018798)"
       sodipodi:nodetypes="csssc" />
  </g>
</svg>
